…
``` r
# top tweets per topic
ft = findThoughts(stm_model, texts=meta$text, topics=1:stm_model$settings$dim$K,
  thresh=0.5, meta=meta)
ft_df = lapply(names(ft$index),
  function(x) data.frame(topic = rep(x, length(ft$index[x])),
    index = ft$index[x][[1]])) %>% data.table::rbindlist()
ft_df[, c("doc_id", "raw_text", "text", "year", "state")] = meta[
  ft_df$index, c("doc_id", "raw_text", "text", "year", "state")]
ft_df[,c("topic", "year", "state", "raw_text")] %>%
  mutate(raw_text=substr(raw_text,1,70)) %>% as_tibble()
```

    ## # A tibble: 24 x 4
    ##    topic    year state       raw_text                                           
    ##    <chr>   <dbl> <chr>       <chr>                                              
    ##  1 Topic 1  2019 United Sta… "DSNY Begins Enforcement of Expanded Organic Waste…
    ##  2 Topic 1  2019 United Sta… "New #SF mandate requires waste audits for city wa…
    ##  3 Topic 1  2018 United Sta… "27 Organizations in New York City Combating Food …
    ##  4 Topic 2  2019 United Sta… "🌎 Bring reusable bags to the grocery. Use cloth p…
    ##  5 Topic 2  2017 United Kin… "A tax on single use plastic bottles would help to…
    ##  6 Topic 2  2019 United Kin… "@Specialized_UK Horrified by this unnecessary amo…
    ##  7 Topic 3  2011 United Kin… "Earlier I wretched live on the @greenerleith podc…
    ##  8 Topic 3  2011 United Kin… "Follow @nicholaann's zero waste challenge on her …
    ##  9 Topic 3  2011 United Kin… "@EdinReporter & so it is! Thanks (: cc @greenerle…
    ## 10 Topic 4  2019 United Sta… "Do you like to sew? The Saratoga Springs Repair C…
    ## # … with 14 more rows
…
